v 20130925 2
P 200 300 200 500 1 0 1
{
T 258 361 5 4 0 1 0 0 1
pinnumber=1
T 258 361 5 4 0 0 0 0 1
pinseq=1
T 258 361 5 4 0 1 0 0 1
pinlabel=1
T 258 361 5 4 0 1 0 0 1
pintype=pwr
}
L 100 300 300 300 3 0 0 0 -1 -1
L 155 250 245 250 3 0 0 0 -1 -1
L 180 210 220 210 3 0 0 0 -1 -1
T 400 250 8 10 0 0 0 0 1
net=AGND:1
T 200 150 9 8 1 0 0 5 1
AGND
