v 20191008 2
P 4300 9000 4000 9000 1 0 0
{
T 4050 9050 5 8 1 1 0 0 1
pinnumber=23
T 4100 8950 5 8 0 1 0 2 1
pinseq=23
T 3950 9000 9 8 1 1 0 6 1
pinlabel=(PC0) A0
T 3950 9000 5 8 0 1 0 8 1
pintype=io
}
P 4300 8600 4000 8600 1 0 0
{
T 4050 8650 5 8 1 1 0 0 1
pinnumber=24
T 4100 8550 5 8 0 1 0 2 1
pinseq=24
T 3950 8600 9 8 1 1 0 6 1
pinlabel=(PC1) A1
T 3950 8600 5 8 0 1 0 8 1
pintype=io
}
P 4300 8200 4000 8200 1 0 0
{
T 4050 8250 5 8 1 1 0 0 1
pinnumber=25
T 4100 8150 5 8 0 1 0 2 1
pinseq=25
T 3950 8200 9 8 1 1 0 6 1
pinlabel=(PC2) A2
T 3950 8200 5 8 0 1 0 8 1
pintype=io
}
P 4300 7800 4000 7800 1 0 0
{
T 4050 7850 5 8 1 1 0 0 1
pinnumber=26
T 4100 7750 5 8 0 1 0 2 1
pinseq=26
T 3950 7800 9 8 1 1 0 6 1
pinlabel=(PC3) A3
T 3950 7800 5 8 0 1 0 8 1
pintype=io
}
P 4300 7400 4000 7400 1 0 0
{
T 4050 7450 5 8 1 1 0 0 1
pinnumber=27
T 4100 7350 5 8 0 1 0 2 1
pinseq=27
T 3950 7400 9 8 1 1 0 6 1
pinlabel=(PC4/SDA) A4
T 3950 7400 5 8 0 1 0 8 1
pintype=io
}
P 4300 7000 4000 7000 1 0 0
{
T 4050 7050 5 8 1 1 0 0 1
pinnumber=28
T 4100 6950 5 8 0 1 0 2 1
pinseq=28
T 3950 7000 9 8 1 1 0 6 1
pinlabel=(PC5/SCL) A5
T 3950 7000 5 8 0 1 0 8 1
pintype=io
}
P 4300 6600 4000 6600 1 0 0
{
T 4050 6650 5 8 1 1 0 0 1
pinnumber=19
T 4100 6550 5 8 0 1 0 2 1
pinseq=19
T 3950 6600 9 8 1 1 0 6 1
pinlabel=(ADC6) A6
T 3950 6600 5 8 0 1 0 8 1
pintype=in
}
P 4300 6200 4000 6200 1 0 0
{
T 4050 6250 5 8 1 1 0 0 1
pinnumber=22
T 4100 6150 5 8 0 1 0 2 1
pinseq=22
T 3950 6200 9 8 1 1 0 6 1
pinlabel=(ADC7) A7
T 3950 6200 5 8 0 1 0 8 1
pintype=in
}
P 4300 5800 4000 5800 1 0 0
{
T 4050 5850 5 8 1 1 0 0 1
pinnumber=30
T 4100 5750 5 8 0 1 0 2 1
pinseq=30
T 3950 5800 9 8 1 1 0 6 1
pinlabel=(PD0/RXD) D0
T 3950 5800 5 8 0 1 0 8 1
pintype=io
}
P 4300 5400 4000 5400 1 0 0
{
T 4050 5450 5 8 1 1 0 0 1
pinnumber=31
T 4100 5350 5 8 0 1 0 2 1
pinseq=31
T 3950 5400 9 8 1 1 0 6 1
pinlabel=(PD1/TXD) D1
T 3950 5400 5 8 0 1 0 8 1
pintype=io
}
P 4300 5000 4000 5000 1 0 0
{
T 4050 5050 5 8 1 1 0 0 1
pinnumber=32
T 4100 4950 5 8 0 1 0 2 1
pinseq=32
T 3950 5000 9 8 1 1 0 6 1
pinlabel=(PD2/INT0) D2
T 3950 5000 5 8 0 1 0 8 1
pintype=io
}
P 4300 4600 4000 4600 1 0 0
{
T 4050 4650 5 8 1 1 0 0 1
pinnumber=1
T 4100 4550 5 8 0 1 0 2 1
pinseq=1
T 3950 4600 9 8 1 1 0 6 1
pinlabel=(PD3/INT1) D3
T 3950 4600 5 8 0 1 0 8 1
pintype=io
}
P 4300 4200 4000 4200 1 0 0
{
T 4050 4250 5 8 1 1 0 0 1
pinnumber=2
T 4100 4150 5 8 0 1 0 2 1
pinseq=2
T 3950 4200 9 8 1 1 0 6 1
pinlabel=(PD4) D4
T 3950 4200 5 8 0 1 0 8 1
pintype=io
}
P 4300 3800 4000 3800 1 0 0
{
T 4050 3850 5 8 1 1 0 0 1
pinnumber=9
T 4100 3750 5 8 0 1 0 2 1
pinseq=9
T 3950 3800 9 8 1 1 0 6 1
pinlabel=(PD5) D5
T 3950 3800 5 8 0 1 0 8 1
pintype=io
}
P 4300 3400 4000 3400 1 0 0
{
T 4050 3450 5 8 1 1 0 0 1
pinnumber=10
T 4100 3350 5 8 0 1 0 2 1
pinseq=10
T 3950 3400 9 8 1 1 0 6 1
pinlabel=(PD6/AIN0) D6
T 3950 3400 5 8 0 1 0 8 1
pintype=io
}
P 4300 3000 4000 3000 1 0 0
{
T 4050 3050 5 8 1 1 0 0 1
pinnumber=11
T 4100 2950 5 8 0 1 0 2 1
pinseq=11
T 3950 3000 9 8 1 1 0 6 1
pinlabel=(PD7/AIN1) D7
T 3950 3000 5 8 0 1 0 8 1
pintype=io
}
P 4300 2600 4000 2600 1 0 0
{
T 4050 2650 5 8 1 1 0 0 1
pinnumber=12
T 4100 2550 5 8 0 1 0 2 1
pinseq=12
T 3950 2600 9 8 1 1 0 6 1
pinlabel=(PB0/ICP1) D8
T 3950 2600 5 8 0 1 0 8 1
pintype=io
}
P 4300 2200 4000 2200 1 0 0
{
T 4050 2250 5 8 1 1 0 0 1
pinnumber=13
T 4100 2150 5 8 0 1 0 2 1
pinseq=13
T 3950 2200 9 8 1 1 0 6 1
pinlabel=(PB1) D9
T 3950 2200 5 8 0 1 0 8 1
pintype=io
}
P 4300 1800 4000 1800 1 0 0
{
T 4050 1850 5 8 1 1 0 0 1
pinnumber=14
T 4100 1750 5 8 0 1 0 2 1
pinseq=14
T 3950 1800 9 8 1 1 0 6 1
pinlabel=(PB2/\_SS\_) D10
T 3950 1800 5 8 0 1 0 8 1
pintype=io
}
P 4300 1400 4000 1400 1 0 0
{
T 4050 1450 5 8 1 1 0 0 1
pinnumber=15
T 4100 1350 5 8 0 1 0 2 1
pinseq=15
T 3950 1400 9 8 1 1 0 6 1
pinlabel=(PB3/MOSI) D11
T 3950 1400 5 8 0 1 0 8 1
pintype=io
}
P 4300 1000 4000 1000 1 0 0
{
T 4050 1050 5 8 1 1 0 0 1
pinnumber=16
T 4100 950 5 8 0 1 0 2 1
pinseq=16
T 3950 1000 9 8 1 1 0 6 1
pinlabel=(PB4/MISO) D12
T 3950 1000 5 8 0 1 0 8 1
pintype=io
}
P 4300 600 4000 600 1 0 0
{
T 4050 650 5 8 1 1 0 0 1
pinnumber=17
T 4100 550 5 8 0 1 0 2 1
pinseq=17
T 3950 600 9 8 1 1 0 6 1
pinlabel=(PB5/SCK) D13
T 3950 600 5 8 0 1 0 8 1
pintype=io
}
P 0 5400 300 5400 1 0 0
{
T 250 5450 5 8 1 1 0 6 1
pinnumber=20
T 200 5350 5 8 0 1 0 8 1
pinseq=20
T 350 5400 9 8 1 1 0 0 1
pinlabel=AREF
T 350 5400 5 8 0 1 0 2 1
pintype=in
}
P 0 7400 300 7400 1 0 0
{
T 250 7450 5 8 1 1 0 6 1
pinnumber=18
T 200 7350 5 8 0 1 0 8 1
pinseq=18
T 350 7400 9 8 1 1 0 0 1
pinlabel=AVCC
T 350 7400 5 8 0 1 0 2 1
pintype=pwr
}
P 0 1400 300 1400 1 0 0
{
T 250 1450 5 8 1 1 0 6 1
pinnumber=3
T 200 1350 5 8 0 1 0 8 1
pinseq=3
T 350 1400 9 8 1 1 0 0 1
pinlabel=GND
T 350 1400 5 8 0 1 0 2 1
pintype=pwr
}
P 0 1000 300 1000 1 0 0
{
T 250 1050 5 8 1 1 0 6 1
pinnumber=5
T 200 950 5 8 0 1 0 8 1
pinseq=5
T 350 1000 9 8 1 1 0 0 1
pinlabel=GND
T 350 1000 5 8 0 1 0 2 1
pintype=pwr
}
P 0 600 300 600 1 0 0
{
T 250 650 5 8 1 1 0 6 1
pinnumber=21
T 200 550 5 8 0 1 0 8 1
pinseq=21
T 350 600 9 8 1 1 0 0 1
pinlabel=GND
T 350 600 5 8 0 1 0 2 1
pintype=pwr
}
P 0 9000 200 9000 1 0 0
{
T 250 9050 5 8 1 1 0 6 1
pinnumber=29
T 200 8950 5 8 0 1 0 8 1
pinseq=29
T 350 9000 9 8 1 1 0 0 1
pinlabel=\_RESET\_ (PC6)
T 350 9000 5 8 0 1 0 2 1
pintype=in
}
V 250 9000 50 6 0 0 0 -1 -1 0 -1 -1 -1 -1 -1
P 0 7000 300 7000 1 0 0
{
T 250 7050 5 8 1 1 0 6 1
pinnumber=4
T 200 6950 5 8 0 1 0 8 1
pinseq=4
T 350 7000 9 8 1 1 0 0 1
pinlabel=VCC
T 350 7000 5 8 0 1 0 2 1
pintype=pwr
}
P 0 6600 300 6600 1 0 0
{
T 250 6650 5 8 1 1 0 6 1
pinnumber=6
T 200 6550 5 8 0 1 0 8 1
pinseq=6
T 350 6600 9 8 1 1 0 0 1
pinlabel=VCC
T 350 6600 5 8 0 1 0 2 1
pintype=pwr
}
P 0 3800 300 3800 1 0 0
{
T 250 3850 5 8 1 1 0 6 1
pinnumber=7
T 200 3750 5 8 0 1 0 8 1
pinseq=7
T 425 3800 9 8 1 1 0 0 1
pinlabel=XTAL1 (PB6)
T 425 3800 5 8 0 1 0 2 1
pintype=pas
}
L 400 3800 300 3875 3 0 0 0 -1 -1
L 400 3800 300 3725 3 0 0 0 -1 -1
P 0 3400 300 3400 1 0 0
{
T 250 3450 5 8 1 1 0 6 1
pinnumber=8
T 200 3350 5 8 0 1 0 8 1
pinseq=8
T 425 3400 9 8 1 1 0 0 1
pinlabel=XTAL2 (PB7)
T 425 3400 5 8 0 1 0 2 1
pintype=pas
}
L 400 3400 300 3475 3 0 0 0 -1 -1
L 400 3400 300 3325 3 0 0 0 -1 -1
B 300 200 3700 9200 3 0 0 0 -1 -1 0 -1 -1 -1 -1 -1
T 2300 4850 8 10 1 1 0 6 1
refdes=U?
T 300 150 9 10 1 0 0 2 1
ATmega168 TQFP
T 300 7400 5 10 0 0 0 0 1
device=ATMEGA168
T 300 7200 5 10 0 0 0 0 1
footprint=TQFP32_7
T 300 6400 5 10 0 0 0 0 1
author=Dan Fekete <thefekete AT gmail DOT com>
T 300 6800 5 10 0 0 0 0 1
documentation=http://www.atmel.com/dyn/resources/prod_documents/doc8271.pdf
T 300 7000 5 10 0 0 0 0 1
description=8 bit Atmel MicroController
T 300 5600 5 10 0 0 0 0 1
numslots=0
T 300 6000 5 10 0 0 0 0 1
dist-license=GNU GPL
T 300 6200 5 10 0 0 0 0 1
use-license=Unlimited
