v 20130925 2
L 900 1950 700 1800 3 0 0 0 -1 -1
T -1200 -300 5 10 0 0 0 0 1
device=BUTTONS
P 1300 1400 1600 1400 1 0 1
{
T 1450 1450 5 8 1 1 0 0 1
pinnumber=2
T 1450 1450 5 8 0 0 0 0 1
pinseq=2
T 1450 1450 5 8 0 1 0 0 1
pinlabel=2
T 1450 1450 5 8 0 1 0 0 1
pintype=pas
}
P 300 1000 0 1000 1 0 1
{
T 100 1050 5 8 1 1 0 0 1
pinnumber=6
T 100 1050 5 8 0 0 0 0 1
pinseq=6
T 100 1050 5 8 0 1 0 0 1
pinlabel=6
T 100 1050 5 8 0 1 0 0 1
pintype=pas
}
T 700 2100 8 10 1 1 0 0 1
refdes=S?
L 900 1550 700 1400 3 0 0 0 -1 -1
L 900 1150 700 1000 3 0 0 0 -1 -1
L 900 750 700 600 3 0 0 0 -1 -1
L 900 350 700 200 3 0 0 0 -1 -1
L 700 1800 500 1800 3 0 0 0 -1 -1
L 500 1800 500 200 3 0 0 0 -1 -1
L 500 200 700 200 3 0 0 0 -1 -1
L 500 600 700 600 3 0 0 0 -1 -1
L 500 1000 700 1000 3 0 0 0 -1 -1
L 500 1400 700 1400 3 0 0 0 -1 -1
L 900 1800 1300 1800 3 0 0 0 -1 -1
L 900 1400 1300 1400 3 0 0 0 -1 -1
L 900 1000 1300 1000 3 0 0 0 -1 -1
L 900 600 1300 600 3 0 0 0 -1 -1
L 900 200 1300 200 3 0 0 0 -1 -1
L 500 1000 300 1000 3 0 0 0 -1 -1
P 1600 1000 1300 1000 1 0 0
{
T 1600 1000 5 10 0 0 0 0 1
pintype=pas
T 1245 995 5 10 0 1 0 6 1
pinlabel=3
T 1445 1045 5 8 1 1 0 0 1
pinnumber=3
T 1600 1000 5 10 0 0 0 0 1
pinseq=3
}
P 1600 600 1300 600 1 0 0
{
T 1600 600 5 10 0 0 0 0 1
pintype=pas
T 1245 595 5 10 0 1 0 6 1
pinlabel=4
T 1445 645 5 8 1 1 0 0 1
pinnumber=4
T 1600 600 5 10 0 0 0 0 1
pinseq=4
}
P 1600 200 1300 200 1 0 0
{
T 1600 200 5 10 0 0 0 0 1
pintype=pas
T 1245 195 5 10 0 1 0 6 1
pinlabel=5
T 1445 245 5 8 1 1 0 0 1
pinnumber=5
T 1600 200 5 10 0 0 0 0 1
pinseq=5
}
P 1600 1800 1300 1800 1 0 0
{
T 1600 1800 5 10 0 0 0 0 1
pintype=pas
T 1245 1795 5 10 0 1 0 6 1
pinlabel=1
T 1445 1845 5 8 1 1 0 0 1
pinnumber=1
T 1600 1800 5 10 0 0 0 0 1
pinseq=1
}
B 300 0 1000 2000 3 0 0 0 -1 -1 0 -1 -1 -1 -1 -1
