v 20130925 2
P 1500 3100 1200 3100 1 0 0
{
T 1295 3145 5 10 1 1 0 0 1
pinnumber=20
T 1500 3100 5 10 0 0 0 0 1
pinseq=20
}
P 1500 2800 1200 2800 1 0 0
{
T 1295 2845 5 10 1 1 0 0 1
pinnumber=19
T 1500 2800 5 10 0 0 0 0 1
pinseq=19
}
P 1500 2500 1200 2500 1 0 0
{
T 1295 2545 5 10 1 1 0 0 1
pinnumber=18
T 1500 2500 5 10 0 0 0 0 1
pinseq=18
}
P 1500 2200 1200 2200 1 0 0
{
T 1295 2245 5 10 1 1 0 0 1
pinnumber=17
T 1500 2200 5 10 0 0 0 0 1
pinseq=17
}
P 1500 1900 1200 1900 1 0 0
{
T 1295 1945 5 10 1 1 0 0 1
pinnumber=16
T 1500 1900 5 10 0 0 0 0 1
pinseq=16
}
P 1500 1600 1200 1600 1 0 0
{
T 1295 1645 5 10 1 1 0 0 1
pinnumber=15
T 1500 1600 5 10 0 0 0 0 1
pinseq=15
}
P 1500 1300 1200 1300 1 0 0
{
T 1295 1345 5 10 1 1 0 0 1
pinnumber=14
T 1500 1300 5 10 0 0 0 0 1
pinseq=14
}
P 1500 1000 1200 1000 1 0 0
{
T 1295 1045 5 10 1 1 0 0 1
pinnumber=13
T 1500 1000 5 10 0 0 0 0 1
pinseq=13
}
P 1500 700 1200 700 1 0 0
{
T 1295 745 5 10 1 1 0 0 1
pinnumber=12
T 1500 700 5 10 0 0 0 0 1
pinseq=12
}
P 1500 400 1200 400 1 0 0
{
T 1295 445 5 10 1 1 0 0 1
pinnumber=11
T 1500 400 5 10 0 0 0 0 1
pinseq=11
}
P 0 3100 300 3100 1 0 0
{
T 205 3145 5 10 1 1 0 6 1
pinnumber=1
T 0 3100 5 10 0 0 0 0 1
pinseq=1
}
P 0 2800 300 2800 1 0 0
{
T 205 2845 5 10 1 1 0 6 1
pinnumber=2
T 0 2800 5 10 0 0 0 0 1
pinseq=2
}
P 0 2500 300 2500 1 0 0
{
T 205 2545 5 10 1 1 0 6 1
pinnumber=3
T 0 2500 5 10 0 0 0 0 1
pinseq=3
}
P 0 2200 300 2200 1 0 0
{
T 205 2245 5 10 1 1 0 6 1
pinnumber=4
T 0 2200 5 10 0 0 0 0 1
pinseq=4
}
P 0 1900 300 1900 1 0 0
{
T 205 1945 5 10 1 1 0 6 1
pinnumber=5
T 0 1900 5 10 0 0 0 0 1
pinseq=5
}
P 0 1600 300 1600 1 0 0
{
T 205 1645 5 10 1 1 0 6 1
pinnumber=6
T 0 1600 5 10 0 0 0 0 1
pinseq=6
}
P 0 1300 300 1300 1 0 0
{
T 205 1345 5 10 1 1 0 6 1
pinnumber=7
T 0 1300 5 10 0 0 0 0 1
pinseq=7
}
P 0 1000 300 1000 1 0 0
{
T 205 1045 5 10 1 1 0 6 1
pinnumber=8
T 0 1000 5 10 0 0 0 0 1
pinseq=8
}
P 0 700 300 700 1 0 0
{
T 205 745 5 10 1 1 0 6 1
pinnumber=9
T 0 700 5 10 0 0 0 0 1
pinseq=9
}
P 0 400 300 400 1 0 0
{
T 205 445 5 10 1 1 0 6 1
pinnumber=10
T 0 400 5 10 0 0 0 0 1
pinseq=10
}
B 300 200 900 3100 3 0 0 0 -1 -1 0 -1 -1 -1 -1 -1
L 700 3200 800 3100 3 0 0 0 -1 -1
L 800 3100 700 3000 3 0 0 0 -1 -1
L 700 3200 700 3000 3 0 0 0 -1 -1
L 800 3200 800 3000 3 0 0 0 -1 -1
L 800 3100 1000 3100 3 0 0 0 -1 -1
L 700 3100 500 3100 3 0 0 0 -1 -1
L 830 3140 930 3240 3 0 0 0 -1 -1
L 930 3240 880 3210 3 0 0 0 -1 -1
L 930 3240 900 3190 3 0 0 0 -1 -1
L 900 3140 1000 3240 3 0 0 0 -1 -1
L 1000 3240 950 3210 3 0 0 0 -1 -1
L 1000 3240 970 3190 3 0 0 0 -1 -1
L 700 2900 800 2800 3 0 0 0 -1 -1
L 800 2800 700 2700 3 0 0 0 -1 -1
L 700 2900 700 2700 3 0 0 0 -1 -1
L 800 2900 800 2700 3 0 0 0 -1 -1
L 800 2800 1000 2800 3 0 0 0 -1 -1
L 700 2800 500 2800 3 0 0 0 -1 -1
L 830 2840 930 2940 3 0 0 0 -1 -1
L 930 2940 880 2910 3 0 0 0 -1 -1
L 930 2940 900 2890 3 0 0 0 -1 -1
L 900 2840 1000 2940 3 0 0 0 -1 -1
L 1000 2940 950 2910 3 0 0 0 -1 -1
L 1000 2940 970 2890 3 0 0 0 -1 -1
L 700 2600 800 2500 3 0 0 0 -1 -1
L 800 2500 700 2400 3 0 0 0 -1 -1
L 700 2600 700 2400 3 0 0 0 -1 -1
L 800 2600 800 2400 3 0 0 0 -1 -1
L 800 2500 1000 2500 3 0 0 0 -1 -1
L 700 2500 500 2500 3 0 0 0 -1 -1
L 830 2540 930 2640 3 0 0 0 -1 -1
L 930 2640 880 2610 3 0 0 0 -1 -1
L 930 2640 900 2590 3 0 0 0 -1 -1
L 900 2540 1000 2640 3 0 0 0 -1 -1
L 1000 2640 950 2610 3 0 0 0 -1 -1
L 1000 2640 970 2590 3 0 0 0 -1 -1
L 700 2300 800 2200 3 0 0 0 -1 -1
L 800 2200 700 2100 3 0 0 0 -1 -1
L 700 2300 700 2100 3 0 0 0 -1 -1
L 800 2300 800 2100 3 0 0 0 -1 -1
L 800 2200 1000 2200 3 0 0 0 -1 -1
L 700 2200 500 2200 3 0 0 0 -1 -1
L 830 2240 930 2340 3 0 0 0 -1 -1
L 930 2340 880 2310 3 0 0 0 -1 -1
L 930 2340 900 2290 3 0 0 0 -1 -1
L 900 2240 1000 2340 3 0 0 0 -1 -1
L 1000 2340 950 2310 3 0 0 0 -1 -1
L 1000 2340 970 2290 3 0 0 0 -1 -1
L 700 2000 800 1900 3 0 0 0 -1 -1
L 800 1900 700 1800 3 0 0 0 -1 -1
L 700 2000 700 1800 3 0 0 0 -1 -1
L 800 2000 800 1800 3 0 0 0 -1 -1
L 800 1900 1000 1900 3 0 0 0 -1 -1
L 700 1900 500 1900 3 0 0 0 -1 -1
L 830 1940 930 2040 3 0 0 0 -1 -1
L 930 2040 880 2010 3 0 0 0 -1 -1
L 930 2040 900 1990 3 0 0 0 -1 -1
L 900 1940 1000 2040 3 0 0 0 -1 -1
L 1000 2040 950 2010 3 0 0 0 -1 -1
L 1000 2040 970 1990 3 0 0 0 -1 -1
L 700 1700 800 1600 3 0 0 0 -1 -1
L 800 1600 700 1500 3 0 0 0 -1 -1
L 700 1700 700 1500 3 0 0 0 -1 -1
L 800 1700 800 1500 3 0 0 0 -1 -1
L 800 1600 1000 1600 3 0 0 0 -1 -1
L 700 1600 500 1600 3 0 0 0 -1 -1
L 830 1640 930 1740 3 0 0 0 -1 -1
L 930 1740 880 1710 3 0 0 0 -1 -1
L 930 1740 900 1690 3 0 0 0 -1 -1
L 900 1640 1000 1740 3 0 0 0 -1 -1
L 1000 1740 950 1710 3 0 0 0 -1 -1
L 1000 1740 970 1690 3 0 0 0 -1 -1
L 700 1400 800 1300 3 0 0 0 -1 -1
L 800 1300 700 1200 3 0 0 0 -1 -1
L 700 1400 700 1200 3 0 0 0 -1 -1
L 800 1400 800 1200 3 0 0 0 -1 -1
L 800 1300 1000 1300 3 0 0 0 -1 -1
L 700 1300 500 1300 3 0 0 0 -1 -1
L 830 1340 930 1440 3 0 0 0 -1 -1
L 930 1440 880 1410 3 0 0 0 -1 -1
L 930 1440 900 1390 3 0 0 0 -1 -1
L 900 1340 1000 1440 3 0 0 0 -1 -1
L 1000 1440 950 1410 3 0 0 0 -1 -1
L 1000 1440 970 1390 3 0 0 0 -1 -1
L 700 1100 800 1000 3 0 0 0 -1 -1
L 800 1000 700 900 3 0 0 0 -1 -1
L 700 1100 700 900 3 0 0 0 -1 -1
L 800 1100 800 900 3 0 0 0 -1 -1
L 800 1000 1000 1000 3 0 0 0 -1 -1
L 700 1000 500 1000 3 0 0 0 -1 -1
L 830 1040 930 1140 3 0 0 0 -1 -1
L 930 1140 880 1110 3 0 0 0 -1 -1
L 930 1140 900 1090 3 0 0 0 -1 -1
L 900 1040 1000 1140 3 0 0 0 -1 -1
L 1000 1140 950 1110 3 0 0 0 -1 -1
L 1000 1140 970 1090 3 0 0 0 -1 -1
L 700 800 800 700 3 0 0 0 -1 -1
L 800 700 700 600 3 0 0 0 -1 -1
L 700 800 700 600 3 0 0 0 -1 -1
L 800 800 800 600 3 0 0 0 -1 -1
L 800 700 1000 700 3 0 0 0 -1 -1
L 700 700 500 700 3 0 0 0 -1 -1
L 830 740 930 840 3 0 0 0 -1 -1
L 930 840 880 810 3 0 0 0 -1 -1
L 930 840 900 790 3 0 0 0 -1 -1
L 900 740 1000 840 3 0 0 0 -1 -1
L 1000 840 950 810 3 0 0 0 -1 -1
L 1000 840 970 790 3 0 0 0 -1 -1
L 700 500 800 400 3 0 0 0 -1 -1
L 800 400 700 300 3 0 0 0 -1 -1
L 700 500 700 300 3 0 0 0 -1 -1
L 800 500 800 300 3 0 0 0 -1 -1
L 800 400 1000 400 3 0 0 0 -1 -1
L 700 400 500 400 3 0 0 0 -1 -1
L 830 440 930 540 3 0 0 0 -1 -1
L 930 540 880 510 3 0 0 0 -1 -1
L 930 540 900 490 3 0 0 0 -1 -1
L 900 440 1000 540 3 0 0 0 -1 -1
L 1000 540 950 510 3 0 0 0 -1 -1
L 1000 540 970 490 3 0 0 0 -1 -1
T 300 0 9 8 1 0 0 0 1
DC-7G3HWA
T 700 3400 8 10 1 1 0 0 1
refdes=U?
T 1400 3500 8 10 0 1 0 0 1
footprint=DIP20.fp
