v 20130925 2
L 1150 650 1650 650 3 0 0 0 -1 -1
L 1300 650 1450 950 3 0 0 0 -1 -1
L 1500 950 1650 650 3 0 0 0 -1 -1
L 1150 950 1650 950 3 0 0 0 -1 -1
L 1400 1200 1400 950 3 0 0 0 -1 -1
L 1400 650 1400 400 3 0 0 0 -1 -1
L 1500 950 1350 650 3 0 0 0 -1 -1
L 1300 650 1150 950 3 0 0 0 -1 -1
L 500 950 900 950 3 0 0 0 -1 -1
L 500 950 700 650 3 0 0 0 -1 -1
L 700 650 900 950 3 0 0 0 -1 -1
L 500 650 900 650 3 0 0 0 -1 -1
L 950 750 1050 850 3 0 0 0 -1 -1
L 950 850 1050 950 3 0 0 0 -1 -1
L 1050 950 1000 925 3 0 0 0 -1 -1
L 1050 950 1025 900 3 0 0 0 -1 -1
L 1050 850 1000 825 3 0 0 0 -1 -1
L 1050 850 1025 800 3 0 0 0 -1 -1
L 300 1200 700 1200 3 0 0 0 -1 -1
L 700 1200 700 950 3 0 0 0 -1 -1
L 700 650 700 400 3 0 0 0 -1 -1
L 700 400 300 400 3 0 0 0 -1 -1
L 1400 1200 1900 1200 3 0 0 0 -1 -1
L 1400 400 1900 400 3 0 0 0 -1 -1
B 300 200 1600 1200 3 0 0 0 -1 -1 0 -1 -1 -1 -1 -1
P 0 1200 300 1200 1 0 0
{
T 0 1200 5 10 0 0 0 0 1
pintype=in
T 205 1245 5 8 1 1 0 6 1
pinnumber=16
T 0 1200 5 10 0 0 0 0 1
pinseq=16
}
P 0 400 300 400 1 0 0
{
T 0 400 5 10 0 0 0 0 1
pintype=in
T 205 445 5 8 1 1 0 6 1
pinnumber=1
T 0 400 5 10 0 0 0 0 1
pinseq=1
}
P 2200 1200 1900 1200 1 0 0
{
T 2200 1200 5 10 0 0 0 0 1
pintype=pas
T 1995 1245 5 8 1 1 0 0 1
pinnumber=10
T 2200 1200 5 10 0 0 0 0 1
pinseq=10
}
P 2200 400 1900 400 1 0 0
{
T 2200 400 5 10 0 0 0 0 1
pintype=pas
T 1995 445 5 8 1 1 0 0 1
pinnumber=8
T 2200 400 5 10 0 0 0 0 1
pinseq=8
}
T 700 0 8 10 1 1 0 0 1
device=DPA-6111
T 1000 1500 8 10 1 1 0 0 1
refdes=U?
T 3700 500 8 10 0 1 0 0 1
footprint=DIP16-SSR.fp
