v 20130925 2
P 500 0 500 300 1 0 0
{
T 500 0 5 10 0 0 0 0 1
pintype=pwr
T 495 400 9 8 1 1 180 5 1
pinlabel=GND
T 595 100 5 8 1 1 180 6 1
pinnumber=2
T 500 0 5 10 0 0 0 0 1
pinseq=2
}
P 1300 800 1000 800 1 0 0
{
T 1150 800 5 10 0 0 0 0 1
pintype=out
T 945 795 9 8 1 1 0 7 1
pinlabel=IF
T 1095 845 5 8 1 1 0 0 1
pinnumber=1
T 1150 800 5 10 0 0 0 0 1
pinseq=1
}
P 500 1600 500 1300 1 0 0
{
T 500 1500 5 10 0 0 0 0 1
pintype=pwr
T 505 1200 9 8 1 1 180 3 1
pinlabel=Vcc
T 605 1400 5 8 1 1 0 0 1
pinnumber=3
T 500 1500 5 10 0 0 0 0 1
pinseq=3
}
B 0 300 1000 1000 3 0 0 0 -1 -1 0 -1 -1 -1 -1 -1
T 150 800 8 10 1 1 0 0 1
device=HB100
T 850 1450 8 10 1 1 0 0 1
refdes=U?
T 1450 650 8 10 0 1 0 0 1
footprint=HB100
