v 20130925 2
T 1000 250 8 10 0 0 0 0 1
device=HEADER2
T 400 900 8 10 1 1 0 0 1
refdes=J?
T 1000 450 8 10 0 0 0 0 1
class=IO
T 1000 650 8 10 0 0 0 0 1
pins=2
P 0 600 300 600 1 0 0
{
T 100 650 5 8 1 1 0 0 1
pinnumber=1
T 100 650 5 8 0 0 0 0 1
pinseq=1
T 100 650 5 8 0 1 0 0 1
pinlabel=1
T 100 650 5 8 0 1 0 0 1
pintype=pas
}
P 0 200 300 200 1 0 0
{
T 100 250 5 8 1 1 0 0 1
pinnumber=2
T 100 250 5 8 0 0 0 0 1
pinseq=2
T 100 250 5 8 0 1 0 0 1
pinlabel=2
T 100 250 5 8 0 1 0 0 1
pintype=pas
}
B 300 0 400 800 3 0 0 0 -1 -1 0 -1 -1 -1 -1 -1
L 300 400 700 400 3 0 0 0 -1 -1
