v 20130925 2
P 0 4400 300 4400 1 0 0
{
T 0 4400 5 10 0 0 0 0 1
pintype=pwr
T 355 4395 9 8 1 1 0 1 1
pinlabel=VDD
T 205 4445 5 8 1 1 0 6 1
pinnumber=2
T 0 4400 5 10 0 0 0 0 1
pinseq=2
}
P 0 4000 300 4000 1 0 0
{
T 0 4000 5 10 0 0 0 0 1
pintype=pwr
T 355 3995 9 8 1 1 0 1 1
pinlabel=VDDIO
T 205 4045 5 8 1 1 0 6 1
pinnumber=13
T 0 4000 5 10 0 0 0 0 1
pinseq=13
}
P 0 3600 300 3600 1 0 0
{
T 0 3600 5 10 0 0 0 0 1
pintype=pas
T 355 3595 9 8 1 1 0 1 1
pinlabel=S1
T 205 3645 5 8 1 1 0 6 1
pinnumber=4
T 0 3600 5 10 0 0 0 0 1
pinseq=4
}
P 0 3200 300 3200 1 0 0
{
T 0 3200 5 10 0 0 0 0 1
pintype=in
T 355 3195 9 8 1 1 0 1 1
pinlabel=SCL
T 205 3245 5 8 1 1 0 6 1
pinnumber=1
T 0 3200 5 10 0 0 0 0 1
pinseq=1
}
P 0 2800 300 2800 1 0 0
{
T 0 2800 5 10 0 0 0 0 1
pintype=io
T 355 2795 9 8 1 1 0 1 1
pinlabel=SDA
T 205 2845 5 8 1 1 0 6 1
pinnumber=16
T 0 2800 5 10 0 0 0 0 1
pinseq=16
}
P 0 2000 300 2000 1 0 0
{
T 0 2000 5 10 0 0 0 0 1
pintype=pas
T 355 1995 9 8 1 1 0 1 1
pinlabel=SETP
T 205 2045 5 8 1 1 0 6 1
pinnumber=8
T 0 2000 5 10 0 0 0 0 1
pinseq=8
}
P 0 1600 300 1600 1 0 0
{
T 0 1600 5 10 0 0 0 0 1
pintype=pas
T 355 1595 9 8 1 1 0 1 1
pinlabel=SETC
T 205 1645 5 8 1 1 0 6 1
pinnumber=12
T 0 1600 5 10 0 0 0 0 1
pinseq=12
}
P 0 1200 300 1200 1 0 0
{
T 0 1200 5 10 0 0 0 0 1
pintype=pas
T 355 1195 9 8 1 1 0 1 1
pinlabel=C1
T 205 1245 5 8 1 1 0 6 1
pinnumber=10
T 0 1200 5 10 0 0 0 0 1
pinseq=10
}
P 0 800 300 800 1 0 0
{
T 0 800 5 10 0 0 0 0 1
pintype=pwr
T 355 795 9 8 1 1 0 1 1
pinlabel=GND
T 205 845 5 8 1 1 0 6 1
pinnumber=9
T 0 800 5 10 0 0 0 0 1
pinseq=9
}
P 0 400 300 400 1 0 0
{
T 0 400 5 10 0 0 0 0 1
pintype=pwr
T 355 395 9 8 1 1 0 1 1
pinlabel=GND
T 205 445 5 8 1 1 0 6 1
pinnumber=11
T 0 400 5 10 0 0 0 0 1
pinseq=11
}
B 300 200 1000 4400 3 0 0 0 -1 -1 0 -1 -1 -1 -1 -1
T 1000 4700 8 10 1 1 0 0 1
refdes=U?
T 800 -400 8 10 0 1 0 0 1
device=SENSOR
T 800 100 9 8 1 1 0 5 1
value=HMC5883L
T 2000 2000 8 10 0 1 0 0 1
footprint=LCC16
P 0 2400 300 2400 1 0 0
{
T 0 2400 5 10 0 0 0 0 1
pintype=out
T 355 2395 9 8 1 1 0 1 1
pinlabel=DRDY
T 205 2445 5 8 1 1 0 6 1
pinnumber=15
T 0 2400 5 10 0 0 0 0 1
pinseq=15
}
