v 20130925 2
P 0 1100 300 1100 1 0 0
{
T 0 1100 5 10 0 0 0 0 1
pintype=io
T 355 1095 9 8 1 1 0 1 1
pinlabel=DATA
T 205 1145 5 8 1 1 0 6 1
pinnumber=1
T 0 1100 5 10 0 0 0 0 1
pinseq=1
}
P 0 700 300 700 1 0 0
{
T 0 700 5 10 0 0 0 0 1
pintype=io
T 355 695 9 8 1 1 0 1 1
pinlabel=SCK
T 205 745 5 8 1 1 0 6 1
pinnumber=6
T 0 700 5 10 0 0 0 0 1
pinseq=6
}
B 300 300 1200 1200 3 0 0 0 -1 -1 0 -1 -1 -1 -1 -1
P 900 1800 900 1500 1 0 0
{
T 900 1800 5 10 0 0 0 0 1
pintype=pwr
T 905 1400 9 8 1 1 180 3 1
pinlabel=VDD
T 805 1600 5 8 1 1 180 2 1
pinnumber=5
T 900 1800 5 10 0 0 0 0 1
pinseq=5
}
P 900 0 900 300 1 0 0
{
T 900 0 5 10 0 0 0 0 1
pintype=pwr
T 895 400 9 8 1 1 180 5 1
pinlabel=GND
T 795 200 5 8 1 1 180 0 1
pinnumber=2
T 900 0 5 10 0 0 0 0 1
pinseq=2
}
T 1100 900 3 8 1 1 0 4 1
device=HTU21D
T 1100 1600 8 10 1 1 0 0 1
refdes=U?
