v 20130925 2
A 700 2400 200 90 180 3 0 0 0 -1 -1
T 2100 2800 5 10 0 0 0 0 1
device=INDUCTOR
A 700 2000 200 90 180 3 0 0 0 -1 -1
A 700 1600 200 90 180 3 0 0 0 -1 -1
A 700 1200 200 90 180 3 0 0 0 -1 -1
A 700 800 200 90 180 3 0 0 0 -1 -1
A 900 800 200 270 180 3 0 0 0 -1 -1
A 900 1200 200 270 180 3 0 0 0 -1 -1
A 900 1600 200 270 180 3 0 0 0 -1 -1
T 1000 300 9 10 1 0 0 0 1
INDUCTOR
L 700 600 900 600 3 0 0 0 -1 -1
P 900 1800 1700 1800 1 0 1
{
T 900 1800 5 10 0 0 0 0 1
pinnumber=3
T 900 1800 5 10 0 0 0 0 1
pinseq=3
T 900 1800 5 10 0 0 0 0 1
pinnumber=3
T 900 1800 5 10 0 0 0 0 1
pintype=pas
}
P 700 2600 0 2600 1 0 1
{
T 700 2600 5 10 0 0 0 0 1
pinnumber=1
T 700 2600 5 10 0 0 0 0 1
pinseq=1
T 700 2600 5 10 0 0 0 0 1
pinlabel=1
T 700 2600 5 10 0 0 0 0 1
pintype=pas
}
P 800 600 800 0 1 0 1
{
T 800 600 5 10 0 0 0 0 1
pinlabel=2
T 800 600 5 10 0 0 0 0 1
pinseq=2
T 800 600 5 10 0 0 0 0 1
pinnumber=2
T 800 600 5 10 0 0 0 0 1
pintype=pas
}
T 1000 2300 8 10 1 1 0 0 1
refdes=U?
