v 20130925 2
P 0 1700 300 1700 1 0 0
{
T 0 1700 5 10 0 0 0 0 1
pintype=in
T 355 1695 9 10 1 1 0 1 1
pinlabel=SI
T 205 1745 5 10 1 1 0 6 1
pinnumber=4
T 0 1700 5 10 0 0 0 0 1
pinseq=4
}
P 0 1300 300 1300 1 0 0
{
T 0 1300 5 10 0 0 0 0 1
pintype=in
T 355 1295 9 10 1 1 0 1 1
pinlabel=SCLK
T 205 1345 5 10 1 1 0 6 1
pinnumber=5
T 0 1300 5 10 0 0 0 0 1
pinseq=5
}
P 0 900 300 900 1 0 0
{
T 0 900 5 10 0 0 0 0 1
pintype=in
T 355 895 9 10 1 1 0 1 1
pinlabel=\_CS\_
T 205 945 5 10 1 1 0 6 1
pinnumber=2
T 0 900 5 10 0 0 0 0 1
pinseq=2
}
P 0 500 300 500 1 0 0
{
T 0 500 5 10 0 0 0 0 1
pintype=in
T 355 495 9 10 1 1 0 1 1
pinlabel=\_RST\_
T 205 545 5 10 1 1 0 6 1
pinnumber=1
T 0 500 5 10 0 0 0 0 1
pinseq=1
}
P 1000 2200 1000 1900 1 0 0
{
T 1000 2200 5 10 0 0 0 0 1
pintype=pwr
T 855 1700 9 10 1 1 180 7 1
pinlabel=Vcc
T 905 2150 5 10 1 1 180 0 1
pinnumber=6
T 1000 2200 5 10 0 0 0 0 1
pinseq=6
}
P 1000 0 1000 300 1 0 0
{
T 1000 0 5 10 0 0 0 0 1
pintype=pwr
T 1245 500 9 10 1 1 180 1 1
pinlabel=GND
T 795 150 5 10 1 1 180 6 1
pinnumber=3
T 1000 0 5 10 0 0 0 0 1
pinseq=3
}
B 300 300 1400 1600 3 0 0 0 -1 -1 0 -1 -1 -1 -1 -1
T 1300 2100 8 10 1 1 0 0 1
refdes=LCD?
T 1600 2000 8 10 0 1 0 0 1
footprint=lcd1616-asssemby.fp
