v 20130925 2
P 800 1800 800 1500 1 0 0
{
T 800 1800 5 10 0 0 0 0 1
pintype=pwr
T 805 1400 9 8 1 1 180 3 1
pinlabel=Vin
T 705 1550 5 8 1 1 180 2 1
pinnumber=1
T 800 1800 5 10 0 0 0 0 1
pinseq=0
}
P 1600 900 1300 900 1 0 0
{
T 1600 900 5 10 0 0 0 0 1
pintype=pwr
T 1245 895 9 8 1 1 0 7 1
pinlabel=Vout
T 1395 945 5 8 1 1 0 0 1
pinnumber=5
T 1600 900 5 10 0 0 0 0 1
pinseq=5
}
P 0 1100 300 1100 1 0 0
{
T 0 1100 5 10 0 0 0 0 1
pintype=pas
T 355 1095 9 8 1 1 0 1 1
pinlabel=EN
T 205 1145 5 8 1 1 0 6 1
pinnumber=3
T 0 1100 5 10 0 0 0 0 1
pinseq=3
}
P 0 700 300 700 1 0 0
{
T 0 700 5 10 0 0 0 0 1
pintype=pas
T 355 695 9 8 1 1 0 1 1
pinlabel=BP
T 205 745 5 8 1 1 0 6 1
pinnumber=4
T 0 700 5 10 0 0 0 0 1
pinseq=4
}
P 800 0 800 300 1 0 0
{
T 800 0 5 10 0 0 0 0 1
pintype=pwr
T 945 500 9 8 1 1 180 0 1
pinlabel=GND
T 695 250 5 8 1 1 180 0 1
pinnumber=2
T 800 0 5 10 0 0 0 0 1
pinseq=2
}
B 300 300 1000 1200 3 0 0 0 -1 -1 0 -1 -1 -1 -1 -1
T 900 100 9 8 1 1 0 0 1
device=LP2985
T 2400 1000 8 10 0 1 0 0 1
footprint=SOT23-5
T 1000 1600 5 10 1 1 0 0 1
refdes=U?
