v 20130925 2
L 600 1500 600 1100 3 0 0 0 -1 -1
L 600 1100 900 1300 3 0 0 0 -1 -1
L 900 1300 600 1500 3 0 0 0 -1 -1
L 900 900 900 500 3 0 0 0 -1 -1
L 900 500 600 700 3 0 0 0 -1 -1
L 600 700 900 900 3 0 0 0 -1 -1
V 800 1200 25 3 0 0 0 -1 -1 0 -1 -1 -1 -1 -1
V 925 800 25 3 0 0 0 -1 -1 0 -1 -1 -1 -1 -1
L 600 1300 400 1300 3 0 0 0 -1 -1
L 825 1400 1050 1400 3 0 0 0 -1 -1
L 900 600 1050 600 3 0 0 0 -1 -1
L 600 700 400 700 3 0 0 0 -1 -1
L 950 1200 950 900 3 0 0 0 -1 -1
L 1000 1200 1200 1200 3 0 0 0 -1 -1
L 950 800 950 900 3 0 0 0 -1 -1
L 1050 600 1200 600 3 0 0 0 -1 -1
L 1050 1400 1050 600 3 0 0 0 -1 -1
L 400 1300 300 1300 3 0 0 0 -1 -1
L 400 700 300 700 3 0 0 0 -1 -1
L 850 1200 1000 1200 3 0 0 0 -1 -1
L 850 1200 825 1200 3 0 0 0 -1 -1
L 825 1400 750 1400 3 0 0 0 -1 -1
V 700 606 25 3 0 0 0 -1 -1 0 -1 -1 -1 -1 -1
L 300 1000 700 1000 3 0 0 0 -1 -1
L 300 400 700 400 3 0 0 0 -1 -1
L 700 400 700 582 3 0 0 0 -1 -1
L 699 1000 699 1167 3 0 0 0 -1 -1
B 300 200 900 1500 3 0 0 0 -1 -1 0 -1 -1 -1 -1 -1
P 300 700 0 700 1 0 1
{
T 200 750 5 8 1 1 0 6 1
pinnumber=1
T 350 750 9 8 1 1 0 0 1
pinlabel=RO
T 350 700 5 8 0 1 0 2 1
pintype=out
T 200 650 5 8 0 1 0 8 1
pinseq=1
}
P 300 400 0 400 1 0 1
{
T 200 450 5 8 1 1 0 6 1
pinnumber=2
T 350 450 9 8 1 1 0 0 1
pinlabel=\_RE\_
T 350 400 5 8 0 1 0 2 1
pintype=in
T 200 350 5 8 0 1 0 8 1
pinseq=2
}
P 300 1000 0 1000 1 0 1
{
T 200 1050 5 8 1 1 0 6 1
pinnumber=3
T 350 1050 9 8 1 1 0 0 1
pinlabel=DE
T 350 1000 5 8 0 1 0 2 1
pintype=in
T 200 950 5 8 0 1 0 8 1
pinseq=3
}
P 300 1300 0 1300 1 0 1
{
T 200 1350 5 8 1 1 0 6 1
pinnumber=4
T 350 1350 9 8 1 1 0 0 1
pinlabel=DI
T 350 1300 5 8 0 1 0 2 1
pintype=in
T 200 1250 5 8 0 1 0 8 1
pinseq=4
}
P 800 200 800 0 1 0 1
{
T 800 250 9 8 1 1 0 3 1
pinlabel=GND
T 850 50 5 8 1 1 0 0 1
pinnumber=5
T 900 400 5 8 0 1 0 3 1
pintype=pwr
T 850 0 5 8 0 1 0 2 1
pinseq=5
}
P 1200 1200 1500 1200 1 0 1
{
T 1300 1250 5 8 1 1 0 0 1
pinnumber=7
T 1150 1250 9 8 1 1 0 6 1
pinlabel=B
T 1150 1200 5 8 0 1 0 8 1
pintype=in
T 1300 1150 5 8 0 1 0 2 1
pinseq=7
}
P 1200 600 1500 600 1 0 1
{
T 1300 650 5 8 1 1 0 0 1
pinnumber=6
T 1150 450 9 8 1 1 0 6 1
pinlabel=A
T 1150 600 5 8 0 1 0 8 1
pintype=out
T 1300 550 5 8 0 1 0 2 1
pinseq=6
}
P 800 1700 800 2000 1 0 1
{
T 800 1650 9 8 1 1 0 5 1
pinlabel=Vcc
T 850 1800 5 8 1 1 0 0 1
pinnumber=8
T 800 1500 5 8 0 1 0 5 1
pintype=pwr
T 850 1800 5 8 0 1 0 2 1
pinseq=8
}
T 1650 1800 5 10 0 0 0 0 1
device=MAX489
T 1650 800 5 10 0 0 0 0 1
comment=E suffix is Electrostatic protected to 15 kV
T 1650 600 5 10 0 0 0 0 1
comment=MAX491 is high speed version
T 1050 1850 8 10 1 1 0 0 1
refdes=U?
T 1650 1600 5 10 0 0 0 0 1
footprint=SO14
T 1650 1400 5 10 0 0 0 0 1
footprint2=DIP14
T 1650 1000 5 10 0 0 0 0 1
description=low-power, slew-rate-limited RS-485/RS-422 transceiver
T 1650 2000 5 10 0 0 0 0 1
numslots=0
T 1650 1200 5 10 0 0 0 0 1
documentation=http://pdfserv.maxim-ic.com/en/ds/MAX1487-MAX491.pdf
T -50 1750 9 10 1 0 0 0 1
MAX485
