v 20130925 2
P 0 1300 300 1300 1 0 0
{
T 0 1300 5 10 0 0 0 0 1
pintype=pwr
T 355 1295 9 10 1 1 0 1 1
pinlabel=VIN
T 205 1345 5 8 1 1 0 6 1
pinnumber=5
T 0 1300 5 10 0 0 0 0 1
pinseq=5
}
P 0 500 300 500 1 0 0
{
T 0 500 5 10 0 0 0 0 1
pintype=in
T 355 495 9 10 1 1 0 1 1
pinlabel=DIM
T 205 545 5 8 1 1 0 6 1
pinnumber=2
T 0 500 5 10 0 0 0 0 1
pinseq=2
}
P 1000 0 1000 300 1 0 0
{
T 1000 0 5 10 0 0 0 0 1
pintype=pwr
T 1005 350 3 10 1 1 0 3 1
pinlabel=GND
T 905 150 5 8 1 1 0 6 1
pinnumber=3
T 1000 0 5 10 0 0 0 0 1
pinseq=3
}
P 2000 1300 1700 1300 1 0 0
{
T 2000 1300 5 10 0 0 0 0 1
pintype=pas
T 1645 1295 9 10 1 1 0 7 1
pinlabel=SEN
T 1795 1345 5 8 1 1 0 0 1
pinnumber=4
T 2000 1300 5 10 0 0 0 0 1
pinseq=4
}
P 2000 500 1700 500 1 0 0
{
T 2000 500 5 10 0 0 0 0 1
pintype=pwr
T 1645 495 9 10 1 1 0 7 1
pinlabel=SW
T 1795 545 5 8 1 1 0 0 1
pinnumber=1
T 2000 500 5 10 0 0 0 0 1
pinseq=1
}
B 300 300 1400 1200 3 0 0 0 -1 -1 0 -1 -1 -1 -1 -1
T 1000 900 9 8 1 1 0 4 1
device=MBI6651
T 900 1600 5 10 1 1 0 0 1
refdes=U?
T 1300 1500 8 10 0 1 0 0 1
footprint=TO252
