v 20130925 2
P 0 1800 200 1800 1 0 0
{
T 0 1800 5 10 0 0 0 0 1
pintype=io
T 255 1795 9 10 1 1 0 0 1
pinlabel=\_CS\_
T 105 1845 5 10 1 1 0 6 1
pinnumber=1
T 0 1800 5 10 0 0 0 0 1
pinseq=1
}
P 0 1400 200 1400 1 0 0
{
T 0 1400 5 10 0 0 0 0 1
pintype=io
T 255 1395 9 10 1 1 0 0 1
pinlabel=CLK
T 105 1445 5 10 1 1 0 6 1
pinnumber=2
T 0 1400 5 10 0 0 0 0 1
pinseq=2
}
P 0 1000 200 1000 1 0 0
{
T 0 1000 5 10 0 0 0 0 1
pintype=io
T 255 995 9 10 1 1 0 0 1
pinlabel=SI
T 105 1045 5 10 1 1 0 6 1
pinnumber=3
T 0 1000 5 10 0 0 0 0 1
pinseq=3
}
P 0 200 200 200 1 0 0
{
T 0 200 5 10 0 0 0 0 1
pintype=pwr
T 255 195 9 10 1 1 0 0 1
pinlabel=Vdd
T 105 245 5 10 1 1 0 6 1
pinnumber=8
T 0 200 5 10 0 0 0 0 1
pinseq=8
}
P 1500 200 1300 200 1 0 0
{
T 1500 200 5 10 0 0 0 0 1
pintype=pwr
T 1245 195 9 10 1 1 0 6 1
pinlabel=Vss
T 1395 245 5 10 1 1 0 0 1
pinnumber=4
T 1500 200 5 10 0 0 0 0 1
pinseq=4
}
P 1500 1000 1300 1000 1 0 0
{
T 1500 1000 5 10 0 0 0 0 1
pintype=pas
T 1245 995 9 10 1 1 0 6 1
pinlabel=PB0
T 1395 1045 5 10 1 1 0 0 1
pinnumber=7
T 1500 1000 5 10 0 0 0 0 1
pinseq=7
}
P 1500 1400 1300 1400 1 0 0
{
T 1500 1400 5 10 0 0 0 0 1
pintype=pas
T 1245 1395 9 10 1 1 0 6 1
pinlabel=PW0
T 1395 1445 5 10 1 1 0 0 1
pinnumber=6
T 1500 1400 5 10 0 0 0 0 1
pinseq=6
}
P 1500 1800 1300 1800 1 0 0
{
T 1500 1800 5 10 0 0 0 0 1
pintype=pas
T 1245 1795 9 10 1 1 0 6 1
pinlabel=PA0
T 1395 1845 5 10 1 1 0 0 1
pinnumber=5
T 1500 1800 5 10 0 0 0 0 1
pinseq=5
}
B 200 0 1100 2100 3 0 0 0 -1 -1 0 -1 -1 -1 -1 -1
T 300 2200 9 10 1 0 0 0 1
MCP41010
