v 20121123 2
T 550 400 8 10 1 1 0 0 1
refdes=R?
T 800 900 8 10 0 1 0 0 1
device=VARIABLE_RESISTOR
P 0 100 200 100 1 0 0
{
T 0 100 5 10 0 1 0 0 1
pinnumber=1
T 0 100 5 10 0 0 0 0 1
pinseq=1
T 0 100 5 10 0 1 0 0 1
pinlabel=1
T 0 100 5 10 0 1 0 0 1
pintype=pas
}
P 700 100 900 100 1 0 1
{
T 800 100 5 10 0 1 0 0 1
pinnumber=3
T 800 100 5 10 0 0 0 0 1
pinseq=3
T 800 100 5 10 0 1 0 0 1
pinlabel=3
T 800 100 5 10 0 1 0 0 1
pintype=pas
}
P 500 400 500 600 1 0 1
{
T 500 500 5 10 0 1 90 0 1
pinnumber=2
T 500 500 5 10 0 0 90 0 1
pinseq=2
T 500 500 5 10 0 1 90 0 1
pinlabel=2
T 500 500 5 10 0 1 90 0 1
pintype=pas
}
B 200 0 500 200 3 0 0 0 -1 -1 0 -1 -1 -1 -1 -1
L 500 400 500 200 3 0 0 0 -1 -1
L 500 200 450 300 3 0 0 0 -1 -1
L 500 200 550 300 3 0 0 0 -1 -1
