v 20191008 2
T 410 850 8 10 0 0 0 0 1
device=G6K relay
P 300 1200 0 1200 1 0 1
{
T 160 1250 5 10 0 0 0 0 1
pinseq=6
T 200 1250 5 8 1 1 0 6 1
pinnumber=6
T 300 1200 5 10 0 1 0 0 1
pintype=pas
}
P 700 1400 1000 1400 1 0 1
{
T 860 1450 5 10 0 0 0 0 1
pinseq=7
T 810 1450 5 8 1 1 0 0 1
pinnumber=7
T 710 1400 5 10 0 1 0 0 1
pintype=pas
}
P 700 1000 1000 1000 1 0 1
{
T 860 1050 5 10 0 0 0 0 1
pinseq=5
T 810 1050 5 8 1 1 0 0 1
pinnumber=5
T 710 1000 5 10 0 1 0 0 1
pintype=pas
}
L 300 1200 660 1350 3 0 0 0 -1 -1
P 300 2000 0 2000 1 0 1
{
T 160 2050 5 10 0 0 0 0 1
pinseq=3
T 200 2050 5 8 1 1 0 6 1
pinnumber=3
T 300 2000 5 10 0 1 0 0 1
pintype=pas
}
P 700 2200 1000 2200 1 0 1
{
T 860 2250 5 10 0 0 0 0 1
pinseq=2
T 810 2250 5 8 1 1 0 0 1
pinnumber=2
T 710 2200 5 10 0 1 0 0 1
pintype=pas
}
P 700 1800 1000 1800 1 0 1
{
T 860 1850 5 10 0 0 0 0 1
pinseq=4
T 800 1850 5 8 1 1 0 0 1
pinnumber=4
T 800 1750 5 10 0 1 0 0 1
pintype=pas
}
L 310 2000 660 2150 3 0 0 0 -1 -1
T 410 2400 8 10 1 1 0 0 1
refdes=K?
L 460 2060 460 1950 3 0 0 0 -1 -1
L 460 1350 460 1270 3 0 0 0 -1 -1
L 460 1600 460 1450 3 0 0 0 -1 -1
L 460 1850 460 1700 3 0 0 0 -1 -1
V 660 2200 50 3 0 0 0 -1 -1 0 -1 -1 -1 -1 -1
V 660 1800 50 3 0 0 0 -1 -1 0 -1 -1 -1 -1 -1
V 660 1400 50 3 0 0 0 -1 -1 0 -1 -1 -1 -1 -1
V 660 1000 50 3 0 0 0 -1 -1 0 -1 -1 -1 -1 -1
B 300 0 400 800 3 0 1 0 -1 -1 0 -1 -1 -1 -1 -1
P 0 400 300 400 1 0 0
{
T 100 450 5 10 0 0 0 0 1
pintype=pas
T 208 442 5 8 1 1 0 6 1
pinnumber=1
T 100 450 5 10 0 0 0 0 1
pinseq=1
}
P 1000 400 700 400 1 0 0
{
T 900 450 5 10 0 0 0 6 1
pintype=pas
T 792 442 5 10 1 1 0 0 1
pinnumber=8
T 900 450 5 10 0 0 0 6 1
pinseq=8
}
