v 20130925 2
L 300 400 300 0 3 0 0 0 -1 -1
L 300 400 600 200 3 0 0 0 -1 -1
T 300 900 5 10 0 0 0 0 1
device=SMBJxxA
L 600 200 300 0 3 0 0 0 -1 -1
L 600 400 600 0 3 0 0 0 -1 -1
P 0 200 200 200 1 0 0
{
T 100 250 5 8 0 1 0 0 1
pinnumber=2
T 100 250 5 8 0 0 0 0 1
pinseq=2
T 100 250 5 8 0 1 0 0 1
pinlabel=2
T 100 250 5 8 0 1 0 0 1
pintype=pas
}
P 900 200 700 200 1 0 0
{
T 700 250 5 8 0 1 0 0 1
pinnumber=1
T 700 250 5 8 0 0 0 0 1
pinseq=1
T 700 250 5 8 0 1 0 0 1
pinlabel=1
T 700 250 5 8 0 1 0 0 1
pintype=pas
}
L 700 200 600 200 3 0 0 0 -1 -1
L 300 200 200 200 3 0 0 0 -1 -1
T 300 500 8 10 1 1 0 0 1
refdes=VD?
L 600 400 500 400 3 0 0 0 -1 -1
T 300 700 8 10 0 0 0 0 1
footprint=DO214AA
