v 20191008 2
P 0 200 300 200 1 0 0
{
T 100 250 5 10 0 0 0 0 1
pintype=pwr
T 358 192 9 8 1 1 0 1 1
pinlabel=GND
T 208 242 5 8 1 1 0 6 1
pinnumber=2
T 100 250 5 10 0 0 0 0 1
pinseq=2
}
P 0 600 300 600 1 0 0
{
T 100 650 5 10 0 0 0 0 1
pintype=io
T 358 592 9 8 1 1 0 1 1
pinlabel=A
T 208 642 5 8 1 1 0 6 1
pinnumber=3
T 100 650 5 10 0 0 0 0 1
pinseq=3
}
P 0 1000 300 1000 1 0 0
{
T 100 1050 5 10 0 0 0 0 1
pintype=pwr
T 358 992 9 8 1 1 0 1 1
pinlabel=Vcca
T 208 1042 5 8 1 1 0 6 1
pinnumber=1
T 100 1050 5 10 0 0 0 0 1
pinseq=1
}
P 1500 1000 1200 1000 1 0 0
{
T 1400 1050 5 10 0 0 0 6 1
pintype=pwr
T 1142 992 9 8 1 1 0 7 1
pinlabel=Vccb
T 1292 1042 5 8 1 1 0 0 1
pinnumber=6
T 1400 1050 5 10 0 0 0 6 1
pinseq=6
}
P 1500 600 1200 600 1 0 0
{
T 1400 650 5 10 0 0 0 6 1
pintype=io
T 1142 592 9 8 1 1 0 7 1
pinlabel=B
T 1292 642 5 8 1 1 0 0 1
pinnumber=4
T 1400 650 5 10 0 0 0 6 1
pinseq=4
}
P 1500 200 1200 200 1 0 0
{
T 1400 250 5 10 0 0 0 6 1
pintype=in
T 1142 192 9 8 1 1 0 7 1
pinlabel=DIR
T 1292 242 5 8 1 1 0 0 1
pinnumber=5
T 1400 250 5 10 0 0 0 6 1
pinseq=5
}
B 300 0 900 1200 3 0 1 0 -1 -1 0 -1 -1 -1 -1 -1
T 900 1300 8 10 1 1 0 0 1
refdes=U?
T 750 -50 9 6 1 1 0 5 1
device=SN74LVC1T45
T 1700 700 8 10 0 1 0 0 1
footprint=SOT23-6
