v 20130925 2
P 500 1400 500 1100 1 0 0
{
T 500 1400 5 10 0 0 0 0 1
pintype=pwr
T 495 1000 9 8 1 1 0 5 1
pinlabel=V+
T 595 1200 5 8 1 1 0 0 1
pinnumber=1
T 500 1400 5 10 0 0 0 0 1
pinseq=1
}
P 1300 700 1000 700 1 0 0
{
T 1300 700 5 10 0 0 0 0 1
pintype=out
T 945 695 9 8 1 1 0 7 1
pinlabel=OUT
T 1095 745 5 8 1 1 0 0 1
pinnumber=3
T 1300 700 5 10 0 0 0 0 1
pinseq=3
}
P 500 0 500 300 1 0 0
{
T 500 0 5 10 0 0 0 0 1
pintype=pwr
T 505 400 9 8 1 1 0 3 1
pinlabel=V-
T 605 200 5 8 1 1 0 2 1
pinnumber=2
T 500 0 5 10 0 0 0 0 1
pinseq=2
}
B 0 300 1000 800 3 0 0 0 -1 -1 0 -1 -1 -1 -1 -1
T 300 700 9 8 1 1 0 4 1
device=SS495
T 0 1200 8 10 1 1 0 0 1
refdes=U?
T 1200 1000 8 10 0 1 0 0 1
footprint=TO92
