v 20191008 2
P 0 400 300 400 1 0 0
{
T 100 450 5 10 0 0 0 0 1
pintype=pas
T 358 392 9 8 1 1 0 1 1
pinlabel=COMP
T 208 442 5 8 1 1 0 6 1
pinnumber=2
T 100 450 5 10 0 0 0 0 1
pinseq=2
}
P 0 800 300 800 1 0 0
{
T 100 850 5 10 0 0 0 0 1
pintype=in
T 358 792 9 8 1 1 0 1 1
pinlabel=CTRL
T 208 842 5 8 1 1 0 6 1
pinnumber=5
T 100 850 5 10 0 0 0 0 1
pinseq=5
}
P 0 1200 300 1200 1 0 0
{
T 100 1250 5 10 0 0 0 0 1
pintype=pwr
T 358 1192 9 8 1 1 0 1 1
pinlabel=VIN
T 208 1242 5 8 1 1 0 6 1
pinnumber=6
T 100 1250 5 10 0 0 0 0 1
pinseq=6
}
P 1600 1200 1300 1200 1 0 0
{
T 1500 1250 5 10 0 0 0 6 1
pintype=pwr
T 1242 1192 9 8 1 1 0 7 1
pinlabel=SW
T 1392 1242 5 8 1 1 0 0 1
pinnumber=4
T 1500 1250 5 10 0 0 0 6 1
pinseq=4
}
P 1600 800 1300 800 1 0 0
{
T 1500 850 5 10 0 0 0 6 1
pintype=pas
T 1242 792 9 8 1 1 0 7 1
pinlabel=FB
T 1392 842 5 8 1 1 0 0 1
pinnumber=1
T 1500 850 5 10 0 0 0 6 1
pinseq=1
}
P 1600 400 1300 400 1 0 0
{
T 1500 450 5 10 0 0 0 6 1
pintype=pwr
T 1242 392 9 8 1 1 0 7 1
pinlabel=GND
T 1392 442 5 8 1 1 0 0 1
pinnumber=3
T 1500 450 5 10 0 0 0 6 1
pinseq=3
}
B 300 200 1000 1200 3 0 1 0 -1 -1 0 -1 -1 -1 -1 -1
T 1000 1500 8 10 1 1 0 0 1
refdes=U?
T 800 150 9 6 1 1 0 5 1
device=TPS61165DRVR
T -300 1600 8 10 0 1 0 0 1
footprint=WSON6
