v 20130925 2
P 0 3300 300 3300 1 0 0
{
T 0 3300 5 10 0 0 0 0 1
pintype=io
T 355 3295 9 8 1 1 0 1 1
pinlabel=A1
T 205 3345 5 8 1 1 0 6 1
pinnumber=1
T 0 3300 5 10 0 0 0 0 1
pinseq=1
}
P 0 500 300 500 1 0 0
{
T 0 500 5 10 0 0 0 0 1
pintype=io
T 355 495 9 8 1 1 0 1 1
pinlabel=A2
T 205 545 5 8 1 1 0 6 1
pinnumber=3
T 0 500 5 10 0 0 0 0 1
pinseq=3
}
P 0 900 300 900 1 0 0
{
T 0 900 5 10 0 0 0 0 1
pintype=io
T 355 895 9 8 1 1 0 1 1
pinlabel=A3
T 205 945 5 8 1 1 0 6 1
pinnumber=4
T 0 900 5 10 0 0 0 0 1
pinseq=4
}
P 0 1300 300 1300 1 0 0
{
T 0 1300 5 10 0 0 0 0 1
pintype=io
T 355 1295 9 8 1 1 0 1 1
pinlabel=A4
T 205 1345 5 8 1 1 0 6 1
pinnumber=5
T 0 1300 5 10 0 0 0 0 1
pinseq=5
}
P 0 1700 300 1700 1 0 0
{
T 0 1700 5 10 0 0 0 0 1
pintype=io
T 355 1695 9 8 1 1 0 1 1
pinlabel=A5
T 205 1745 5 8 1 1 0 6 1
pinnumber=6
T 0 1700 5 10 0 0 0 0 1
pinseq=6
}
P 0 2100 300 2100 1 0 0
{
T 0 2100 5 10 0 0 0 0 1
pintype=io
T 355 2095 9 8 1 1 0 1 1
pinlabel=A6
T 205 2145 5 8 1 1 0 6 1
pinnumber=7
T 0 2100 5 10 0 0 0 0 1
pinseq=7
}
P 0 2500 300 2500 1 0 0
{
T 0 2500 5 10 0 0 0 0 1
pintype=io
T 355 2495 9 8 1 1 0 1 1
pinlabel=A7
T 205 2545 5 8 1 1 0 6 1
pinnumber=8
T 0 2500 5 10 0 0 0 0 1
pinseq=8
}
P 0 2900 300 2900 1 0 0
{
T 0 2900 5 10 0 0 0 0 1
pintype=io
T 355 2895 9 8 1 1 0 1 1
pinlabel=A8
T 205 2945 5 8 1 1 0 6 1
pinnumber=9
T 0 2900 5 10 0 0 0 0 1
pinseq=9
}
P 2400 3300 2100 3300 1 0 0
{
T 2400 3300 5 10 0 0 0 0 1
pintype=io
T 2045 3295 9 8 1 1 0 7 1
pinlabel=B1
T 2195 3345 5 8 1 1 0 0 1
pinnumber=20
T 2400 3300 5 10 0 0 0 0 1
pinseq=20
}
P 2400 500 2100 500 1 0 0
{
T 2400 500 5 10 0 0 0 0 1
pintype=io
T 2045 495 9 8 1 1 0 7 1
pinlabel=B2
T 2195 545 5 8 1 1 0 0 1
pinnumber=18
T 2400 500 5 10 0 0 0 0 1
pinseq=18
}
P 2400 900 2100 900 1 0 0
{
T 2400 900 5 10 0 0 0 0 1
pintype=io
T 2045 895 9 8 1 1 0 7 1
pinlabel=B3
T 2195 945 5 8 1 1 0 0 1
pinnumber=17
T 2400 900 5 10 0 0 0 0 1
pinseq=17
}
P 2400 1300 2100 1300 1 0 0
{
T 2400 1300 5 10 0 0 0 0 1
pintype=io
T 2045 1295 9 8 1 1 0 7 1
pinlabel=B4
T 2195 1345 5 8 1 1 0 0 1
pinnumber=16
T 2400 1300 5 10 0 0 0 0 1
pinseq=16
}
P 2400 1700 2100 1700 1 0 0
{
T 2400 1700 5 10 0 0 0 0 1
pintype=io
T 2045 1695 9 8 1 1 0 7 1
pinlabel=B5
T 2195 1745 5 8 1 1 0 0 1
pinnumber=15
T 2400 1700 5 10 0 0 0 0 1
pinseq=15
}
P 2400 2100 2100 2100 1 0 0
{
T 2400 2100 5 10 0 0 0 0 1
pintype=io
T 2045 2095 9 8 1 1 0 7 1
pinlabel=B6
T 2195 2145 5 8 1 1 0 0 1
pinnumber=14
T 2400 2100 5 10 0 0 0 0 1
pinseq=14
}
P 2400 2500 2100 2500 1 0 0
{
T 2400 2500 5 10 0 0 0 0 1
pintype=io
T 2045 2495 9 8 1 1 0 7 1
pinlabel=B7
T 2195 2545 5 8 1 1 0 0 1
pinnumber=13
T 2400 2500 5 10 0 0 0 0 1
pinseq=13
}
P 2400 2900 2100 2900 1 0 0
{
T 2400 2900 5 10 0 0 0 0 1
pintype=io
T 2045 2895 9 8 1 1 0 7 1
pinlabel=B8
T 2195 2945 5 8 1 1 0 0 1
pinnumber=12
T 2400 2900 5 10 0 0 0 0 1
pinseq=12
}
P 900 4200 900 3900 1 0 0
{
T 900 4200 5 10 0 0 0 0 1
pintype=pwr
T 905 3800 9 8 1 1 180 3 1
pinlabel=Vcca
T 995 3950 5 8 1 1 0 0 1
pinnumber=2
T 900 4200 5 10 0 0 0 0 1
pinseq=2
}
P 1500 4200 1500 3900 1 0 0
{
T 1500 4200 5 10 0 0 0 0 1
pintype=pwr
T 1505 3800 9 8 1 1 180 3 1
pinlabel=Vccb
T 1595 3950 5 8 1 1 0 0 1
pinnumber=19
T 1500 4200 5 10 0 0 0 0 1
pinseq=19
}
P 1200 0 1200 300 1 0 0
{
T 1200 0 5 10 0 0 0 0 1
pintype=pwr
T 1195 400 9 8 1 1 180 5 1
pinlabel=GND
T 1295 250 5 8 1 1 180 6 1
pinnumber=11
T 1200 0 5 10 0 0 0 0 1
pinseq=11
}
B 300 300 1800 3600 3 0 0 0 -1 -1 0 -1 -1 -1 -1 -1
P 0 3700 300 3700 1 0 0
{
T 0 3700 5 10 0 0 0 0 1
pintype=in
T 355 3695 9 8 1 1 0 1 1
pinlabel=OE
T 205 3745 5 8 1 1 0 6 1
pinnumber=10
T 0 3700 5 10 0 0 0 0 1
pinseq=10
}
T 1100 2900 8 10 1 1 0 0 1
refdes=U?
T 800 2200 9 10 1 1 0 0 1
device=TXB0108
T 3200 1800 8 10 0 1 0 0 1
model=TXB0108RGYR
T 900 1300 8 10 0 1 0 0 1
footprint=RGY20
