v 20130925 2
P 0 10200 300 10200 1 0 0
{
T 0 10200 5 10 0 0 0 0 1
pintype=pwr
T 355 10195 9 8 1 1 0 1 1
pinlabel=VCC1V8
T 205 10245 5 8 1 1 0 6 1
pinnumber=8
T 0 10200 5 10 0 0 0 0 1
pinseq=8
}
P 0 9800 300 9800 1 0 0
{
T 0 9800 5 10 0 0 0 0 1
pintype=pwr
T 355 9795 9 8 1 1 0 1 1
pinlabel=VCC1V8
T 205 9845 5 8 1 1 0 6 1
pinnumber=25
T 0 9800 5 10 0 0 0 0 1
pinseq=25
}
P 0 9400 300 9400 1 0 0
{
T 0 9400 5 10 0 0 0 0 1
pintype=pwr
T 355 9395 9 8 1 1 0 1 1
pinlabel=VCC1V8OUT
T 205 9445 5 8 1 1 0 6 1
pinnumber=14
T 0 9400 5 10 0 0 0 0 1
pinseq=14
}
P 0 9000 300 9000 1 0 0
{
T 0 9000 5 10 0 0 0 0 1
pintype=in
T 355 8995 9 8 1 1 0 1 1
pinlabel=ANE
T 205 9045 5 8 1 1 0 6 1
pinnumber=29
T 0 9000 5 10 0 0 0 0 1
pinseq=29
}
P 0 8600 300 8600 1 0 0
{
T 0 8600 5 10 0 0 0 0 1
pintype=in
T 355 8595 9 8 1 1 0 1 1
pinlabel=A0/DUP
T 205 8645 5 8 1 1 0 6 1
pinnumber=30
T 0 8600 5 10 0 0 0 0 1
pinseq=30
}
P 0 8200 300 8200 1 0 0
{
T 0 8200 5 10 0 0 0 0 1
pintype=in
T 355 8195 9 8 1 1 0 1 1
pinlabel=A1/SPD
T 205 8245 5 8 1 1 0 6 1
pinnumber=31
T 0 8200 5 10 0 0 0 0 1
pinseq=31
}
P 0 7800 300 7800 1 0 0
{
T 0 7800 5 10 0 0 0 0 1
pintype=in
T 355 7795 9 8 1 1 0 1 1
pinlabel=RSV
T 205 7845 5 8 1 1 0 6 1
pinnumber=7
T 0 7800 5 10 0 0 0 0 1
pinseq=7
}
P 0 7400 300 7400 1 0 0
{
T 0 7400 5 10 0 0 0 0 1
pintype=io
T 355 7395 9 8 1 1 0 1 1
pinlabel=D0
T 205 7445 5 8 1 1 0 6 1
pinnumber=32
T 0 7400 5 10 0 0 0 0 1
pinseq=32
}
P 0 7000 300 7000 1 0 0
{
T 0 7000 5 10 0 0 0 0 1
pintype=io
T 355 6995 9 8 1 1 0 1 1
pinlabel=D1
T 205 7045 5 8 1 1 0 6 1
pinnumber=33
T 0 7000 5 10 0 0 0 0 1
pinseq=33
}
P 0 6600 300 6600 1 0 0
{
T 0 6600 5 10 0 0 0 0 1
pintype=io
T 355 6595 9 8 1 1 0 1 1
pinlabel=D2
T 205 6645 5 8 1 1 0 6 1
pinnumber=34
T 0 6600 5 10 0 0 0 0 1
pinseq=34
}
P 0 6200 300 6200 1 0 0
{
T 0 6200 5 10 0 0 0 0 1
pintype=io
T 355 6195 9 8 1 1 0 1 1
pinlabel=D3
T 205 6245 5 8 1 1 0 6 1
pinnumber=35
T 0 6200 5 10 0 0 0 0 1
pinseq=35
}
P 0 5800 300 5800 1 0 0
{
T 0 5800 5 10 0 0 0 0 1
pintype=io
T 355 5795 9 8 1 1 0 1 1
pinlabel=D4
T 205 5845 5 8 1 1 0 6 1
pinnumber=36
T 0 5800 5 10 0 0 0 0 1
pinseq=36
}
P 0 5400 300 5400 1 0 0
{
T 0 5400 5 10 0 0 0 0 1
pintype=io
T 355 5395 9 8 1 1 0 1 1
pinlabel=D5
T 205 5445 5 8 1 1 0 6 1
pinnumber=37
T 0 5400 5 10 0 0 0 0 1
pinseq=37
}
P 0 5000 300 5000 1 0 0
{
T 0 5000 5 10 0 0 0 0 1
pintype=io
T 355 4995 9 8 1 1 0 1 1
pinlabel=D6
T 205 5045 5 8 1 1 0 6 1
pinnumber=38
T 0 5000 5 10 0 0 0 0 1
pinseq=38
}
P 0 4600 300 4600 1 0 0
{
T 0 4600 5 10 0 0 0 0 1
pintype=io
T 355 4595 9 8 1 1 0 1 1
pinlabel=D7
T 205 4645 5 8 1 1 0 6 1
pinnumber=39
T 0 4600 5 10 0 0 0 0 1
pinseq=39
}
P 0 4200 300 4200 1 0 0
{
T 0 4200 5 10 0 0 0 0 1
pintype=in
T 355 4195 9 8 1 1 0 1 1
pinlabel=\_RSTn\_
T 205 4245 5 8 1 1 0 6 1
pinnumber=46
T 0 4200 5 10 0 0 0 0 1
pinseq=46
}
P 0 3800 300 3800 1 0 0
{
T 0 3800 5 10 0 0 0 0 1
pintype=out
T 355 3795 9 8 1 1 0 1 1
pinlabel=\_INTn\_
T 205 3845 5 8 1 1 0 6 1
pinnumber=40
T 0 3800 5 10 0 0 0 0 1
pinseq=40
}
P 0 3400 300 3400 1 0 0
{
T 0 3400 5 10 0 0 0 0 1
pintype=in
T 355 3395 9 8 1 1 0 1 1
pinlabel=\_CSn\_
T 205 3445 5 8 1 1 0 6 1
pinnumber=41
T 0 3400 5 10 0 0 0 0 1
pinseq=41
}
P 0 3000 300 3000 1 0 0
{
T 0 3000 5 10 0 0 0 0 1
pintype=in
T 355 2995 9 8 1 1 0 1 1
pinlabel=SCLK/\_RDn\_
T 205 3045 5 8 1 1 0 6 1
pinnumber=42
T 0 3000 5 10 0 0 0 0 1
pinseq=42
}
P 0 2600 300 2600 1 0 0
{
T 0 2600 5 10 0 0 0 0 1
pintype=in
T 355 2595 9 8 1 1 0 1 1
pinlabel=MOSI/\_WRn\_
T 205 2645 5 8 1 1 0 6 1
pinnumber=43
T 0 2600 5 10 0 0 0 0 1
pinseq=43
}
P 0 2200 300 2200 1 0 0
{
T 0 2200 5 10 0 0 0 0 1
pintype=out
T 355 2195 9 8 1 1 0 1 1
pinlabel=MISO
T 205 2245 5 8 1 1 0 6 1
pinnumber=44
T 0 2200 5 10 0 0 0 0 1
pinseq=44
}
P 0 1800 300 1800 1 0 0
{
T 0 1800 5 10 0 0 0 0 1
pintype=in
T 355 1795 9 8 1 1 0 1 1
pinlabel=PWDN
T 205 1845 5 8 1 1 0 6 1
pinnumber=45
T 0 1800 5 10 0 0 0 0 1
pinseq=45
}
P 0 1400 300 1400 1 0 0
{
T 0 1400 5 10 0 0 0 0 1
pintype=pwr
T 355 1395 9 8 1 1 0 1 1
pinlabel=GNDA
T 205 1445 5 8 1 1 0 6 1
pinnumber=13
T 0 1400 5 10 0 0 0 0 1
pinseq=13
}
P 0 1000 300 1000 1 0 0
{
T 0 1000 5 10 0 0 0 0 1
pintype=pwr
T 355 995 9 8 1 1 0 1 1
pinlabel=GNDA
T 205 1045 5 8 1 1 0 6 1
pinnumber=19
T 0 1000 5 10 0 0 0 0 1
pinseq=19
}
P 0 600 300 600 1 0 0
{
T 0 600 5 10 0 0 0 0 1
pintype=pwr
T 355 595 9 8 1 1 0 1 1
pinlabel=GNDA
T 205 645 5 8 1 1 0 6 1
pinnumber=22
T 0 600 5 10 0 0 0 0 1
pinseq=22
}
P 0 200 300 200 1 0 0
{
T 0 200 5 10 0 0 0 0 1
pintype=pwr
T 355 195 9 8 1 1 0 1 1
pinlabel=GNDA
T 205 245 5 8 1 1 0 6 1
pinnumber=24
T 0 200 5 10 0 0 0 0 1
pinseq=24
}
P 3100 10200 2800 10200 1 0 0
{
T 3100 10200 5 10 0 0 0 0 1
pintype=pwr
T 2745 10195 9 8 1 1 0 7 1
pinlabel=VCC3V3
T 2895 10245 5 8 1 1 0 0 1
pinnumber=27
T 3100 10200 5 10 0 0 0 0 1
pinseq=27
}
P 3100 9800 2800 9800 1 0 0
{
T 3100 9800 5 10 0 0 0 0 1
pintype=pwr
T 2745 9795 9 8 1 1 0 7 1
pinlabel=VCC3V3
T 2895 9845 5 8 1 1 0 0 1
pinnumber=47
T 3100 9800 5 10 0 0 0 0 1
pinseq=47
}
P 3100 9400 2800 9400 1 0 0
{
T 3100 9400 5 10 0 0 0 0 1
pintype=pwr
T 2745 9395 9 8 1 1 0 7 1
pinlabel=VCCV3A
T 2895 9445 5 8 1 1 0 0 1
pinnumber=11
T 3100 9400 5 10 0 0 0 0 1
pinseq=11
}
P 3100 9000 2800 9000 1 0 0
{
T 3100 9000 5 10 0 0 0 0 1
pintype=pwr
T 2745 8995 9 8 1 1 0 7 1
pinlabel=VCCV3A
T 2895 9045 5 8 1 1 0 0 1
pinnumber=15
T 3100 9000 5 10 0 0 0 0 1
pinseq=15
}
P 3100 8600 2800 8600 1 0 0
{
T 3100 8600 5 10 0 0 0 0 1
pintype=pwr
T 2745 8595 9 8 1 1 0 7 1
pinlabel=VCCV3A
T 2895 8645 5 8 1 1 0 0 1
pinnumber=23
T 3100 8600 5 10 0 0 0 0 1
pinseq=23
}
P 3100 7800 2800 7800 1 0 0
{
T 3100 7800 5 10 0 0 0 0 1
pintype=in
T 2745 7795 9 8 1 1 0 7 1
pinlabel=\_LINKLEDn\_/M0
T 2895 7845 5 8 1 1 0 0 1
pinnumber=5
T 3100 7800 5 10 0 0 0 0 1
pinseq=5
}
P 3100 7400 2800 7400 1 0 0
{
T 3100 7400 5 10 0 0 0 0 1
pintype=in
T 2745 7395 9 8 1 1 0 7 1
pinlabel=\_SPDLEDn\_/M1
T 2895 7445 5 8 1 1 0 0 1
pinnumber=4
T 3100 7400 5 10 0 0 0 0 1
pinseq=4
}
P 3100 7000 2800 7000 1 0 0
{
T 3100 7000 5 10 0 0 0 0 1
pintype=in
T 2745 6995 9 8 1 1 0 7 1
pinlabel=\_FDXLEDn\_/M2
T 2895 7045 5 8 1 1 0 0 1
pinnumber=3
T 3100 7000 5 10 0 0 0 0 1
pinseq=3
}
P 3100 6600 2800 6600 1 0 0
{
T 3100 6600 5 10 0 0 0 0 1
pintype=in
T 2745 6595 9 8 1 1 0 7 1
pinlabel=SPIEN
T 2895 6645 5 8 1 1 0 0 1
pinnumber=6
T 3100 6600 5 10 0 0 0 0 1
pinseq=6
}
P 3100 5800 2800 5800 1 0 0
{
T 3100 5800 5 10 0 0 0 0 1
pintype=out
T 2745 5795 9 8 1 1 0 7 1
pinlabel=TXOP
T 2895 5845 5 8 1 1 0 0 1
pinnumber=17
T 3100 5800 5 10 0 0 0 0 1
pinseq=17
}
P 3100 5400 2800 5400 1 0 0
{
T 3100 5400 5 10 0 0 0 0 1
pintype=out
T 2745 5395 9 8 1 1 0 7 1
pinlabel=TXON
T 2895 5445 5 8 1 1 0 0 1
pinnumber=18
T 3100 5400 5 10 0 0 0 0 1
pinseq=18
}
P 3100 5000 2800 5000 1 0 0
{
T 3100 5000 5 10 0 0 0 0 1
pintype=in
T 2745 4995 9 8 1 1 0 7 1
pinlabel=RXIP
T 2895 5045 5 8 1 1 0 0 1
pinnumber=20
T 3100 5000 5 10 0 0 0 0 1
pinseq=20
}
P 3100 4600 2800 4600 1 0 0
{
T 3100 4600 5 10 0 0 0 0 1
pintype=in
T 2745 4595 9 8 1 1 0 7 1
pinlabel=RXIN
T 2895 4645 5 8 1 1 0 0 1
pinnumber=21
T 3100 4600 5 10 0 0 0 0 1
pinseq=21
}
P 3100 3800 2800 3800 1 0 0
{
T 3100 3800 5 10 0 0 0 0 1
pintype=pas
T 2745 3795 9 8 1 1 0 7 1
pinlabel=XTALIN
T 2895 3845 5 8 1 1 0 0 1
pinnumber=1
T 3100 3800 5 10 0 0 0 0 1
pinseq=1
}
P 3100 3400 2800 3400 1 0 0
{
T 3100 3400 5 10 0 0 0 0 1
pintype=pas
T 2745 3395 9 8 1 1 0 7 1
pinlabel=XTALOUT
T 2895 3445 5 8 1 1 0 0 1
pinnumber=2
T 3100 3400 5 10 0 0 0 0 1
pinseq=2
}
P 3100 3000 2800 3000 1 0 0
{
T 3100 3000 5 10 0 0 0 0 1
pintype=pas
T 2745 2995 9 8 1 1 0 7 1
pinlabel=XTALVDD
T 2895 3045 5 8 1 1 0 0 1
pinnumber=16
T 3100 3000 5 10 0 0 0 0 1
pinseq=16
}
P 3100 2600 2800 2600 1 0 0
{
T 3100 2600 5 10 0 0 0 0 1
pintype=pas
T 2745 2595 9 8 1 1 0 7 1
pinlabel=BIAS
T 2895 2645 5 8 1 1 0 0 1
pinnumber=12
T 3100 2600 5 10 0 0 0 0 1
pinseq=12
}
P 3100 1800 2800 1800 1 0 0
{
T 3100 1800 5 10 0 0 0 0 1
pintype=pwr
T 2745 1795 9 8 1 1 0 7 1
pinlabel=GND
T 2895 1845 5 8 1 1 0 0 1
pinnumber=9
T 3100 1800 5 10 0 0 0 0 1
pinseq=9
}
P 3100 1400 2800 1400 1 0 0
{
T 3100 1400 5 10 0 0 0 0 1
pintype=pwr
T 2745 1395 9 8 1 1 0 7 1
pinlabel=GND
T 2895 1445 5 8 1 1 0 0 1
pinnumber=10
T 3100 1400 5 10 0 0 0 0 1
pinseq=10
}
P 3100 1000 2800 1000 1 0 0
{
T 3100 1000 5 10 0 0 0 0 1
pintype=pwr
T 2745 995 9 8 1 1 0 7 1
pinlabel=GND
T 2895 1045 5 8 1 1 0 0 1
pinnumber=26
T 3100 1000 5 10 0 0 0 0 1
pinseq=26
}
P 3100 600 2800 600 1 0 0
{
T 3100 600 5 10 0 0 0 0 1
pintype=pwr
T 2745 595 9 8 1 1 0 7 1
pinlabel=GND
T 2895 645 5 8 1 1 0 0 1
pinnumber=28
T 3100 600 5 10 0 0 0 0 1
pinseq=28
}
P 3100 200 2800 200 1 0 0
{
T 3100 200 5 10 0 0 0 0 1
pintype=pwr
T 2745 195 9 8 1 1 0 7 1
pinlabel=GND
T 2895 245 5 8 1 1 0 0 1
pinnumber=48
T 3100 200 5 10 0 0 0 0 1
pinseq=48
}
B 300 0 2500 10400 3 0 0 0 -1 -1 0 -1 -1 -1 -1 -1
T 1200 5600 8 10 1 1 0 0 1
device=W5200
T 1800 6900 8 10 0 1 0 0 1
footprint=TQFN48_7_EP
T 1500 10500 8 10 1 1 0 0 1
refdes=U?
