v 20130925 2
P 0 800 300 800 1 0 0
{
T 0 800 5 10 0 0 0 0 1
pintype=in
T 355 795 9 8 1 1 0 1 1
pinlabel=EN
T 205 845 5 8 1 1 0 6 1
pinnumber=1
T 0 800 5 10 0 0 0 0 1
pinseq=1
}
P 1600 800 1300 800 1 0 0
{
T 1600 800 5 10 0 0 0 0 1
pintype=pwr
T 1245 795 9 8 1 1 0 7 1
pinlabel=+
T 1395 845 5 8 1 1 0 0 1
pinnumber=3
T 1600 800 5 10 0 0 0 0 1
pinseq=3
}
B 300 0 1000 1000 3 0 0 0 -1 -1 0 -1 -1 -1 -1 -1
T 1000 1100 8 10 1 1 0 0 1
refdes=U?
P 0 200 300 200 1 0 0
{
T 0 200 5 10 0 0 0 0 1
pintype=in
T 355 195 9 8 1 1 0 1 1
pinlabel=DAT
T 205 245 5 8 1 1 0 6 1
pinnumber=2
T 0 200 5 10 0 0 0 0 1
pinseq=2
}
P 1600 200 1300 200 1 0 0
{
T 1600 200 5 10 0 0 0 0 1
pintype=pwr
T 1245 195 9 8 1 1 0 7 1
pinlabel=-
T 1395 245 5 8 1 1 0 0 1
pinnumber=4
T 1600 200 5 10 0 0 0 0 1
pinseq=4
}
L 800 1000 800 1350 3 0 0 0 -1 -1
L 800 1100 650 1350 3 0 0 0 -1 -1
L 800 1100 950 1350 3 0 0 0 -1 -1
T 800 500 8 10 1 1 0 4 1
device=WL102
T 1400 1100 8 10 0 1 0 0 1
footprint=SIP4
